{
  "results": [
    {
      "vote_count": 689,
      "id": 396422,
      "video": false,
      "vote_average": 6.5,
      "title": "Annabelle: Creation",
      "popularity": 351.924583,
      "poster_path": "/tb86j8jVCVsdZnzf8I6cIi65IeM.jpg",
      "original_language": "en",
      "original_title": "Annabelle: Creation",
      "genre_ids": [
        53,
        27
      ],
      "backdrop_path": "/o8u0NyEigCEaZHBdCYTRfXR8U4i.jpg",
      "adult": false,
      "overview": "Several years after the tragic death of their little girl, a dollmaker and his wife welcome a nun and several girls from a shuttered orphanage into their home, soon becoming the target of the dollmaker's possessed creation, Annabelle.",
      "release_date": "2017-08-03"
    },
    {
      "vote_count": 1584,
      "id": 324852,
      "video": false,
      "vote_average": 6.2,
      "title": "Despicable Me 3",
      "popularity": 245.064031,
      "poster_path": "/5qcUGqWoWhEsoQwNUrtf3y3fcWn.jpg",
      "original_language": "en",
      "original_title": "Despicable Me 3",
      "genre_ids": [
        878,
        12,
        16,
        35,
        10751
      ],
      "backdrop_path": "/ftRkFtAGuHngHnLiOxktq0aCVMF.jpg",
      "adult": false,
      "overview": "Gru and his wife Lucy must stop former '80s child star Balthazar Bratt from achieving world domination.",
      "release_date": "2017-06-15"
    },
    {
      "vote_count": 2895,
      "id": 315635,
      "video": false,
      "vote_average": 7.3,
      "title": "Spider-Man: Homecoming",
      "popularity": 241.646675,
      "poster_path": "/c24sv2weTHPsmDa7jEMN0m2P3RT.jpg",
      "original_language": "en",
      "original_title": "Spider-Man: Homecoming",
      "genre_ids": [
        28,
        12,
        878
      ],
      "backdrop_path": "/vc8bCGjdVp0UbMNLzHnHSLRbBWQ.jpg",
      "adult": false,
      "overview": "Following the events of Captain America: Civil War, Peter Parker, with the help of his mentor Tony Stark, tries to balance his life as an ordinary high school student in Queens, New York City, with fighting crime as his superhero alter ego Spider-Man as a new threat, the Vulture, emerges.",
      "release_date": "2017-07-05"
    },
    {
      "vote_count": 413,
      "id": 390043,
      "video": false,
      "vote_average": 6.5,
      "title": "The Hitman's Bodyguard",
      "popularity": 195.470052,
      "poster_path": "/5CGjlz2vyBhW5xHW4eNOZIdgzYq.jpg",
      "original_language": "en",
      "original_title": "The Hitman's Bodyguard",
      "genre_ids": [
        28,
        35
      ],
      "backdrop_path": "/dkA8j5DwUdUT3h658Mt1QgQHTR6.jpg",
      "adult": false,
      "overview": "The world's top bodyguard gets a new client, a hit man who must testify at the International Court of Justice. They must put their differences aside and work together to make it to the trial on time.",
      "release_date": "2017-08-16"
    }
  ],
  "page": 1,
  "total_results": 5,
  "dates": {
    "maximum": "2017-09-12",
    "minimum": "2017-07-26"
  },
  "total_pages": 1
}